<svg xmlns="http://www.w3.org/2000/svg" width="27.667" height="27.667" viewBox="0 0 27.667 27.667">
  <g id="Group_1410" data-name="Group 1410" transform="translate(-269 -470)">
    <g id="Group_486" data-name="Group 486" transform="translate(276.825 474.471)">
      <circle id="Ellipse_4" data-name="Ellipse 4" cx="3.93" cy="3.93" r="3.93" transform="translate(1.635 7.759) rotate(-80.783)" stroke-width="2" stroke="#5dff00" stroke-linecap="round" stroke-linejoin="round" fill="none"/>
      <path id="Path_6" data-name="Path 6" d="M221.475,924.9l2.813,2.234-4.1,7.489h-4.137L212,927.3l2.42-2.4" transform="translate(-212 -915.902)" fill="none" stroke="#5dff00" stroke-linecap="round" stroke-linejoin="round" stroke-width="2"/>
    </g>
    <g id="Ellipse_350" data-name="Ellipse 350" transform="translate(269 470)" fill="none" stroke="#5dff00" stroke-width="2">
      <circle cx="13.833" cy="13.833" r="13.833" stroke="none"/>
      <circle cx="13.833" cy="13.833" r="12.833" fill="none"/>
    </g>
  </g>
</svg>
